{
  "address": "free school street",
  "customer": {
    
  },
  "deliveryAddress": [
    {
      "addressLine": "test",
      "aptNo": "22",
      "country": "Australia",
      "postcode": "test",
      "state": "Melbourne",
      "suburb": "test",
      "valid": true
    },
    {
      "addressLine": "free school street",
      "aptNo": "25",
      "country": "Australia",
      "postcode": "4776",
      "state": "Melbourne",
      "suburb": "67",
      "valid": true
    }
  ],
  "driver": {
    
  },
  "email": "sazzadurrahman88@gmail.com",
  "emailNotification": true,
  "favourites": [
    "0PuMgklAIyo36N38cevr",
    "i0ShkyRoEtjifdX8ViXZ",
    "zeTZtHiaAQpYfQYNVF7z",
    "ORo1sUdqpyHCJhcMvTpA",
    "OnyIqILWykqdpCE5JyJN",
    "QuizMfskz5Bc7DNVxo6n",
    "DpWXn4zTtEXzo9ClmFFm",
    "2f5EmjU2O1ZOydWemif1",
    "cUpCO8cwvqBQEFVmCpoQ",
    "qFGkpapSWFbg5LR52C7c",
    "OshAH98T5lEEABpIMFSZ",
    "aHWEbbLUMt6NyGppaByi",
    "b7gc3hdbR42x6CvHlsfE",
    "IRDcbEfXeIZoXPcyZh6n",
    "LkPBUh1Mskisj8D7efCF",
    "uKtbVAdaQZVmpMdQl09u"
  ],
  "free_delivery": 0,
  "groceryLists": [
    "DpWXn4zTtEXzo9ClmFFm",
    "ZH2RA1V6fNSbhex8CJyG",
    "FPpNqpgEIWvnYTYpm6z5",
    "i0ShkyRoEtjifdX8ViXZ",
    "OnyIqILWykqdpCE5JyJN",
    "HHwTtFJ9VuqSsSqUyZHR",
    "XwywjGiqvgc39o6OUrr5",
    "4gRZCyx9meB76YLbhMaC",
    "34S97R32EhXO2eWLoGc1"
  ],
  "image": "",
  "imagePATH": "users/1550067307826download.jpg",
  "imageURL": "https://firebasestorage.googleapis.com/v0/b/aladins-chirag.appspot.com/o/users%2F1550067307826download.jpg?alt=media&token=0b2231b0-6da7-4360-8929-ae00675090c2",
  "marchantID": "",
  "mobileNotification": true,
  "mobileVerified": true,
  "name": "sazzad",
  "phone": "+61123456789",
  "points": 0,
  "shop": {
    
  },
  "status": "active",
  "type": "customer",
  "uid": "KBSJQcfXTBVlPYA0nGUd1SFUeq93",
  "verification_code": "",
  "verified": true,
  "verifiedBy": "Email"
}