{
  "PaymentRecordID": "oOhhGQJ68tEAxyHWCvKa",
  "adjustedAmount": 0,
  "chiragEarn": 2.67,
  "chiragRevenue": 4.25,
  "completeDate": 1550416745095,
  "customerID": "XbnZxVKmRzXC7dAutTmkecR0yVx2",
  "deliveryFee": 0,
  "deliveryFeeOwner": "chirag",
  "deliveryOptionId": "pICAZIIOW6EgiwOc4uwY",
  "deliveryOptionName": "AC will Deliver",
  "gst": 0,
  "id": "mQPjZdqwsRjEVUND44Ns",
  "note": "test ok.",
  "orderCreated": 1550416175879,
  "orderID": "IOtFfJP3RuED70DfFe6H",
  "payableToChirag": 0,
  "paymentOption": "card",
  "paymentOptionId": "RviPUMWIzBRjtebwipMx",
  "productIDS": [
    {
      "id": "ookAt9L9odhvdKTqE3fW",
      "quantity": 1,
      "soldPrice": 25
    },
    {
      "id": "WO2Uvi2Uhqctf8V9I9AM",
      "quantity": 1,
      "soldPrice": 30
    }
  ],
  "reconcileRef": "2JZYDkzqIfFIvqtuCKRV",
  "reconciled": true,
  "reconciledDate": 1550418007738,
  "ref": "190217005",
  "soldPrice": 55,
  "storeEarn": 50.75,
  "storeID": "c5AMlZfvfzpLE2IJmJST"
}